16.0189	6.34908
15.8934	6.79433
15.1886	7.32858
15.4597	6.81756
15.02861875	6.925793125
14.7330875	6.77851625
14.43755625	6.631239375
14.142025	6.4839625
13.84649375	6.336685625
13.5509625	6.18940875
13.25543125	6.042131875
13.1482	5.92131
12.7716	5.8684
12.72486875	5.818405625
12.4898375	5.74195625
12.25480625	5.665506875
12.019775	5.5890575
11.78474375	5.512608125
11.5497125	5.43615875
11.31468125	5.359709375
10.8827	5.08968
11.2766	5.47684
10.89142438	5.13542875
10.70319875	4.9875975
10.51497313	4.83976625
10.3267475	4.691935
10.13852188	4.54410375
9.95029625	4.3962725
9.762070625	4.24844125
