6.69715	18.2726
7.00777	17.2705
6.33503	15.9963
6.81409	15.601
6.41655	16.1483
6.5127	15.6690
6.4100	15.4633
6.3074	15.2576
6.2048	15.0520
6.1021	14.8463
5.9995	14.6406
5.8969	14.4349
6.02049	14.271
5.56795	14.1875
5.6611	13.8165
5.5279	13.4037
5.3947	12.9910
5.2616	12.5782
5.1284	12.1655
4.9953	11.7527
4.8621	11.3400
4.47359	10.6664
4.9843	11.188
4.6811	10.7219
4.6333	10.5167
4.5854	10.3114
4.5376	10.1062
4.4898	9.9009
4.4419	9.6956
4.3941	9.4904
4.45414	9.99551
